Analysing binary data
…
## Warning: Missing column names filled in: 'X1' [1]

## Parsed with column specification:
## cols(
##   X1 = col_double(),
##   product = col_character(),
##   logdose = col_double(),
##   n = col_double(),
##   dead = col_double()
## )

insect_death

## # A tibble: 63 x 5
##       X1 product logdose     n  dead
##    <dbl> <chr>     <dbl> <dbl> <dbl>
##  1     1 A          -5       9     0
##  2     2 A          -4.5    10     0
##  3     3 A          -4      12     0
##  4     4 A          -3.5    14     0
##  5     5 A          -3       9     1
##  6     6 A          -2.5    14     0
##  7     7 A          -2      14     3
##  8     8 A          -1.5    12     2
##  9     9 A          -1      12     5
## 10    10 A          -0.5     8     3
## #  with 53 more rows
…
